Unnamed: 0,date,state,death,deathConfirmed,deathIncrease,deathProbable,hospitalized,hospitalizedCumulative,hospitalizedCurrently,hospitalizedIncrease,inIcuCumulative,inIcuCurrently,negative,negativeIncrease,negativeTestsAntibody,negativeTestsPeopleAntibody,negativeTestsViral,onVentilatorCumulative,onVentilatorCurrently,positive,positiveCasesViral,positiveIncrease,positiveScore,positiveTestsAntibody,positiveTestsAntigen,positiveTestsPeopleAntibody,positiveTestsPeopleAntigen,positiveTestsViral,recovered,totalTestEncountersViral,totalTestEncountersViralIncrease,totalTestResults,totalTestResultsIncrease,totalTestsAntibody,totalTestsAntigen,totalTestsPeopleAntibody,totalTestsPeopleAntigen,totalTestsPeopleViral,totalTestsPeopleViralIncrease,totalTestsViral,totalTestsViralIncrease
6294,2020-08-18,IN,,,-34,499.1476750520631,,,0.0,98,,,1216158.5011100178,-2259,,,2083003.4741010517,,118.28426536941957,484884.80439299333,,340,0,,,,,,,,29928,7072958.728841997,22850,,,,,,-6911,4587733.952052034,-13800
14267,2020-12-09,OH,7732.942694738783,1223.6535793767416,89,492.1998611573125,25061.67776133202,25067.384087255137,2933.9143906535473,-381,,,,8985,,,,,,226862.3307897083,265401.93141297525,449,0,32996.012481572405,,,,394826.1299713284,43582.91497021088,,-2118,852743.6476468686,2282,331816.46041245,,,,2246443.7182882424,22219,,27286
6630,2020-06-02,AR,,,-85,415.26635331065756,305.39911282166213,,211.88615522496332,-241,,325.40015436225093,1057960.3445630656,6547,,,1202813.915375685,,96.20382335385064,81774.05616218946,,-352,0,10145.304225615457,,,,157495.7855685029,7312.5282780648995,,35731,2714189.0593240596,44945,,,,,718174.5560901231,9287,0.0,-4045
0,2020-01-13,SD,7572.917433162421,,65,0.0,27111.74021912975,27114.854443885517,1624.3780172270594,272,,50.193698870393916,,5749,,,,,,427640.0278851867,444863.20159243024,536,0,,,,,421005.4130803434,176374.54221019224,,38830,3968488.0695415614,2758,,,,,2159592.004745525,22983,2021332.9590374092,-21643
15208,2021-02-22,CA,0.0,4060.461985407367,-40,,4809.4039783109865,,,-49,,23.013114892733597,,-4603,125310.34424749532,,689858.6593043434,,156.7712848825079,0.0,50926.23319420693,-740,0,,32030.24219973337,,,,,,-7263,0.0,308,49405.06487910573,,,,377819.07295485144,-16146,0.0,-11576
